{"success":true,"statusCode":200,"path":"/categories?page=2","timestamp":"2026-03-07T01:37:37.520Z","message":"Success","data":{"data":[{"id":"21","name":"Watches","iconId":"63","parentId":null,"createdAt":"2026-03-07T00:52:04.396Z","updatedAt":"2026-03-07T00:52:04.396Z","isActive":true,"icon":{"id":"63","storageProviderName":"IMAGE_KIT","fileId":"69ab76b45c7cd75eb8859b49","type":"category_icon","url":"https://ik.imagekit.io/4mwdb3xsr/categories/smart_watch_categroy_6fyWVvJZZ.svg","fileName":"smart_watch_categroy.svg","fileSizeInKB":1,"fileType":"image/svg+xml","width":null,"height":null,"altText":null,"uploaderId":"1","createdAt":"2026-03-07T00:52:04.394Z","updatedAt":"2026-03-07T00:52:04.394Z","productId":null}},{"id":"22","name":"Headphones","iconId":"64","parentId":null,"createdAt":"2026-03-07T00:52:05.266Z","updatedAt":"2026-03-07T00:52:05.266Z","isActive":true,"icon":{"id":"64","storageProviderName":"IMAGE_KIT","fileId":"69ab76b45c7cd75eb8859d2b","type":"category_icon","url":"https://ik.imagekit.io/4mwdb3xsr/categories/headphone_category_olH65HWal.svg","fileName":"headphone_category.svg","fileSizeInKB":1,"fileType":"image/svg+xml","width":null,"height":null,"altText":null,"uploaderId":"1","createdAt":"2026-03-07T00:52:05.264Z","updatedAt":"2026-03-07T00:52:05.264Z","productId":null}},{"id":"23","name":"Gaming","iconId":"65","parentId":null,"createdAt":"2026-03-07T00:52:06.317Z","updatedAt":"2026-03-07T00:52:06.317Z","isActive":true,"icon":{"id":"65","storageProviderName":"IMAGE_KIT","fileId":"69ab76b55c7cd75eb885a012","type":"category_icon","url":"https://ik.imagekit.io/4mwdb3xsr/categories/game_category_3EAD_HvB6.svg","fileName":"game_category.svg","fileSizeInKB":2,"fileType":"image/svg+xml","width":null,"height":null,"altText":null,"uploaderId":"1","createdAt":"2026-03-07T00:52:06.315Z","updatedAt":"2026-03-07T00:52:06.315Z","productId":null}},{"id":"25","name":"TVs","iconId":"67","parentId":null,"createdAt":"2026-03-07T00:52:07.889Z","updatedAt":"2026-03-07T00:52:07.889Z","isActive":true,"icon":{"id":"67","storageProviderName":"IMAGE_KIT","fileId":"69ab76b75c7cd75eb885a43b","type":"category_icon","url":"https://ik.imagekit.io/4mwdb3xsr/categories/tv_category_Pld584a-b.svg","fileName":"tv_category.svg","fileSizeInKB":0,"fileType":"image/svg+xml","width":null,"height":null,"altText":null,"uploaderId":"1","createdAt":"2026-03-07T00:52:07.887Z","updatedAt":"2026-03-07T00:52:07.887Z","productId":null}},{"id":"26","name":"Routers","iconId":"68","parentId":null,"createdAt":"2026-03-07T00:52:08.518Z","updatedAt":"2026-03-07T00:52:08.518Z","isActive":true,"icon":{"id":"68","storageProviderName":"IMAGE_KIT","fileId":"69ab76b85c7cd75eb885a63f","type":"category_icon","url":"https://ik.imagekit.io/4mwdb3xsr/categories/router_category_PDbYr35ZC.svg","fileName":"router_category.svg","fileSizeInKB":1,"fileType":"image/svg+xml","width":null,"height":null,"altText":null,"uploaderId":"1","createdAt":"2026-03-07T00:52:08.513Z","updatedAt":"2026-03-07T00:52:08.513Z","productId":null}},{"id":"27","name":"Wifi","iconId":"69","parentId":null,"createdAt":"2026-03-07T00:52:09.228Z","updatedAt":"2026-03-07T00:52:09.228Z","isActive":true,"icon":{"id":"69","storageProviderName":"IMAGE_KIT","fileId":"69ab76b85c7cd75eb885a868","type":"category_icon","url":"https://ik.imagekit.io/4mwdb3xsr/categories/wifi_category_Feq5RF85F.svg","fileName":"wifi_category.svg","fileSizeInKB":1,"fileType":"image/svg+xml","width":null,"height":null,"altText":null,"uploaderId":"1","createdAt":"2026-03-07T00:52:09.226Z","updatedAt":"2026-03-07T00:52:09.226Z","productId":null}},{"id":"28","name":"Plugs","iconId":"70","parentId":null,"createdAt":"2026-03-07T00:52:09.824Z","updatedAt":"2026-03-07T00:52:09.824Z","isActive":true,"icon":{"id":"70","storageProviderName":"IMAGE_KIT","fileId":"69ab76b95c7cd75eb885a9d6","type":"category_icon","url":"https://ik.imagekit.io/4mwdb3xsr/categories/plug_category_KG_kdRpSQ.svg","fileName":"plug_category.svg","fileSizeInKB":1,"fileType":"image/svg+xml","width":null,"height":null,"altText":null,"uploaderId":"1","createdAt":"2026-03-07T00:52:09.822Z","updatedAt":"2026-03-07T00:52:09.822Z","productId":null}},{"id":"29","name":"AI Chips","iconId":"71","parentId":null,"createdAt":"2026-03-07T00:52:10.427Z","updatedAt":"2026-03-07T00:52:10.427Z","isActive":true,"icon":{"id":"71","storageProviderName":"IMAGE_KIT","fileId":"69ab76ba5c7cd75eb885ab4b","type":"category_icon","url":"https://ik.imagekit.io/4mwdb3xsr/categories/ai_chip_category_8jA0Z-E0J.svg","fileName":"ai_chip_category.svg","fileSizeInKB":2,"fileType":"image/svg+xml","width":null,"height":null,"altText":null,"uploaderId":"1","createdAt":"2026-03-07T00:52:10.425Z","updatedAt":"2026-03-07T00:52:10.425Z","productId":null}}],"total":18,"page":2,"limit":10,"totalPages":2,"hasNextPage":false,"hasPrevPage":true}}