{"success":true,"statusCode":200,"path":"/categories","timestamp":"2026-03-07T01:37:14.516Z","message":"Success","data":{"data":[{"id":"1","name":"Phones","iconId":"1","parentId":null,"createdAt":"2026-02-17T13:57:05.558Z","updatedAt":"2026-03-06T02:11:56.715Z","isActive":true,"icon":{"id":"1","storageProviderName":"IMAGE_KIT","fileId":"6984a5605c7cd75eb8aaf263","type":"category_icon","url":"https://ik.imagekit.io/4mwdb3xsr/uploads/DefaultCategoryIconToSeed_7ZkYlN8_k.png","fileName":"DefaultCategoryIconToSeed_7ZkYlN8_k.png","fileSizeInKB":10,"fileType":"image/png","width":null,"height":null,"altText":null,"uploaderId":"1","createdAt":"2026-02-17T13:57:05.328Z","updatedAt":"2026-02-17T13:57:05.328Z","productId":null}},{"id":"2","name":"Smartphones","iconId":"1","parentId":null,"createdAt":"2026-02-17T13:57:05.568Z","updatedAt":"2026-02-17T13:57:09.482Z","isActive":true,"icon":{"id":"1","storageProviderName":"IMAGE_KIT","fileId":"6984a5605c7cd75eb8aaf263","type":"category_icon","url":"https://ik.imagekit.io/4mwdb3xsr/uploads/DefaultCategoryIconToSeed_7ZkYlN8_k.png","fileName":"DefaultCategoryIconToSeed_7ZkYlN8_k.png","fileSizeInKB":10,"fileType":"image/png","width":null,"height":null,"altText":null,"uploaderId":"1","createdAt":"2026-02-17T13:57:05.328Z","updatedAt":"2026-02-17T13:57:05.328Z","productId":null}},{"id":"3","name":"Laptops","iconId":"1","parentId":null,"createdAt":"2026-02-17T13:57:05.576Z","updatedAt":"2026-02-17T13:57:09.488Z","isActive":true,"icon":{"id":"1","storageProviderName":"IMAGE_KIT","fileId":"6984a5605c7cd75eb8aaf263","type":"category_icon","url":"https://ik.imagekit.io/4mwdb3xsr/uploads/DefaultCategoryIconToSeed_7ZkYlN8_k.png","fileName":"DefaultCategoryIconToSeed_7ZkYlN8_k.png","fileSizeInKB":10,"fileType":"image/png","width":null,"height":null,"altText":null,"uploaderId":"1","createdAt":"2026-02-17T13:57:05.328Z","updatedAt":"2026-02-17T13:57:05.328Z","productId":null}},{"id":"4","name":"Tablets","iconId":"1","parentId":null,"createdAt":"2026-02-17T13:57:05.582Z","updatedAt":"2026-02-17T13:57:09.495Z","isActive":true,"icon":{"id":"1","storageProviderName":"IMAGE_KIT","fileId":"6984a5605c7cd75eb8aaf263","type":"category_icon","url":"https://ik.imagekit.io/4mwdb3xsr/uploads/DefaultCategoryIconToSeed_7ZkYlN8_k.png","fileName":"DefaultCategoryIconToSeed_7ZkYlN8_k.png","fileSizeInKB":10,"fileType":"image/png","width":null,"height":null,"altText":null,"uploaderId":"1","createdAt":"2026-02-17T13:57:05.328Z","updatedAt":"2026-02-17T13:57:05.328Z","productId":null}},{"id":"5","name":"Gaming Consoles","iconId":"1","parentId":null,"createdAt":"2026-02-17T13:57:05.582Z","updatedAt":"2026-02-17T13:57:09.495Z","isActive":true,"icon":{"id":"1","storageProviderName":"IMAGE_KIT","fileId":"6984a5605c7cd75eb8aaf263","type":"category_icon","url":"https://ik.imagekit.io/4mwdb3xsr/uploads/DefaultCategoryIconToSeed_7ZkYlN8_k.png","fileName":"DefaultCategoryIconToSeed_7ZkYlN8_k.png","fileSizeInKB":10,"fileType":"image/png","width":null,"height":null,"altText":null,"uploaderId":"1","createdAt":"2026-02-17T13:57:05.328Z","updatedAt":"2026-02-17T13:57:05.328Z","productId":null}},{"id":"6","name":"Cameras","iconId":"1","parentId":null,"createdAt":"2026-02-17T13:57:05.582Z","updatedAt":"2026-02-17T13:57:09.495Z","isActive":true,"icon":{"id":"1","storageProviderName":"IMAGE_KIT","fileId":"6984a5605c7cd75eb8aaf263","type":"category_icon","url":"https://ik.imagekit.io/4mwdb3xsr/uploads/DefaultCategoryIconToSeed_7ZkYlN8_k.png","fileName":"DefaultCategoryIconToSeed_7ZkYlN8_k.png","fileSizeInKB":10,"fileType":"image/png","width":null,"height":null,"altText":null,"uploaderId":"1","createdAt":"2026-02-17T13:57:05.328Z","updatedAt":"2026-02-17T13:57:05.328Z","productId":null}},{"id":"7","name":"Audio Devices","iconId":"1","parentId":null,"createdAt":"2026-02-17T13:57:05.582Z","updatedAt":"2026-02-17T13:57:09.495Z","isActive":true,"icon":{"id":"1","storageProviderName":"IMAGE_KIT","fileId":"6984a5605c7cd75eb8aaf263","type":"category_icon","url":"https://ik.imagekit.io/4mwdb3xsr/uploads/DefaultCategoryIconToSeed_7ZkYlN8_k.png","fileName":"DefaultCategoryIconToSeed_7ZkYlN8_k.png","fileSizeInKB":10,"fileType":"image/png","width":null,"height":null,"altText":null,"uploaderId":"1","createdAt":"2026-02-17T13:57:05.328Z","updatedAt":"2026-02-17T13:57:05.328Z","productId":null}},{"id":"12","name":"Electronics","iconId":"18","parentId":null,"createdAt":"2026-03-03T19:56:33.652Z","updatedAt":"2026-03-03T19:56:33.652Z","isActive":true,"icon":{"id":"18","storageProviderName":"IMAGE_KIT","fileId":"69a73cf05c7cd75eb80e7a39","type":"category_icon","url":"https://ik.imagekit.io/4mwdb3xsr/categories/IMG-20260303-WA0050_8GoTAEXgW.jpg","fileName":"IMG-20260303-WA0050.jpg","fileSizeInKB":120,"fileType":"image/jpeg","width":null,"height":null,"altText":null,"uploaderId":"1","createdAt":"2026-03-03T19:56:33.647Z","updatedAt":"2026-03-03T19:56:33.647Z","productId":null}},{"id":"15","name":"Smart Watch","iconId":"25","parentId":null,"createdAt":"2026-03-04T10:55:29.109Z","updatedAt":"2026-03-06T02:08:04.836Z","isActive":false,"icon":{"id":"25","storageProviderName":"IMAGE_KIT","fileId":"69a80fa05c7cd75eb8aca277","type":"category_icon","url":"https://ik.imagekit.io/4mwdb3xsr/categories/istockphoto-498433288-1024x1024_M8qN-1yf5.jpg","fileName":"istockphoto-498433288-1024x1024.jpg","fileSizeInKB":76,"fileType":"image/jpeg","width":null,"height":null,"altText":null,"uploaderId":"1","createdAt":"2026-03-04T10:55:29.107Z","updatedAt":"2026-03-04T10:55:29.107Z","productId":null}},{"id":"17","name":"phones","iconId":"31","parentId":null,"createdAt":"2026-03-04T22:08:40.698Z","updatedAt":"2026-03-06T23:42:13.322Z","isActive":false,"icon":{"id":"31","storageProviderName":"IMAGE_KIT","fileId":"69a8ad675c7cd75eb882d52c","type":"category_icon","url":"https://ik.imagekit.io/4mwdb3xsr/categories/Gemini_Generated_Image_hl78tdhl78tdhl78_w7D5AuKoU.png","fileName":"Gemini_Generated_Image_hl78tdhl78tdhl78.png","fileSizeInKB":1210,"fileType":"image/png","width":null,"height":null,"altText":null,"uploaderId":"1","createdAt":"2026-03-04T22:08:40.693Z","updatedAt":"2026-03-04T22:08:40.693Z","productId":null}}],"total":18,"page":1,"limit":10,"totalPages":2,"hasNextPage":true,"hasPrevPage":false}}